-------------------------------------------------------------------------------
Test set: com.geekbrains.lesson4.BoxTest
-------------------------------------------------------------------------------
Tests run: 0, Failures: 0, Errors: 0, Skipped: 0, Time elapsed: 0.012 s - in com.geekbrains.lesson4.BoxTest
